
 ############################################################## 
EVENT 0 : player: random player is playing on 4_6_2018

 ############################################################## 
EVENT 0 : player: random player is playing on 4_6_2018

EVENT 0 : selected Wine_Bottle at 6/4/2018 1:42:04 PM
EVENT 1 : check sound of drink_hot1 at 6/4/2018 1:42:12 PM
EVENT 2 : check sound of drink_hot2 at 6/4/2018 1:42:14 PM
EVENT 3 : check sound of drink_cold at 6/4/2018 1:42:15 PM
EVENT 4 : selected drink_cold at 6/4/2018 1:42:16 PM
EVENT 5 : selected drink_hot2 at 6/4/2018 1:42:18 PM
EVENT 6 : selected drink_hot1 at 6/4/2018 1:42:20 PM
EVENT 7 : selected drink_hot1 at 6/4/2018 1:42:21 PM
EVENT 8 : selected drink_hot1 at 6/4/2018 1:42:22 PM
EVENT 9 : selected drink_hot1 at 6/4/2018 1:42:24 PM
EVENT 10 : selected drink_hot1 at 6/4/2018 1:42:25 PM
EVENT 11 : selected drink_hot1 at 6/4/2018 1:42:27 PM
EVENT 12 : selected drink_hot2 at 6/4/2018 1:42:30 PM
EVENT 13 : selected drink_cold at 6/4/2018 1:42:34 PM
EVENT 14 : selected pizza_note at 6/4/2018 1:42:46 PM
EVENT 15 : check sound of pizza_hot at 6/4/2018 1:42:49 PM
EVENT 16 : check sound of pizza_second_hottest at 6/4/2018 1:42:52 PM
EVENT 17 : check sound of pizza_cold at 6/4/2018 1:42:55 PM
EVENT 18 : selected pizza_cold at 6/4/2018 1:42:57 PM
EVENT 19 : selected pizza_second_hottest at 6/4/2018 1:42:59 PM
EVENT 20 : selected pizza_hot at 6/4/2018 1:43:02 PM
EVENT 21 : inserted olive oil at 6/4/2018 1:43:19 PM
EVENT 22 : wrong answer, restart cooking mission at 6/4/2018 1:43:56 PM
EVENT 23 : inserted olive oil at 6/4/2018 1:43:58 PM

 ############################################################## 
EVENT 0 : player: random player is playing on 4_6_2018


 ############################################################## 
EVENT 0 : player: random player is playing on 4_6_2018

EVENT 0 : selected Wine_Bottle at 6/4/2018 1:51:25 PM
EVENT 1 : check sound of drink_hot1 at 6/4/2018 1:51:37 PM
EVENT 2 : check sound of drink_hot1 at 6/4/2018 1:51:42 PM
EVENT 3 : check sound of drink_hot2 at 6/4/2018 1:51:43 PM
EVENT 4 : check sound of drink_cold at 6/4/2018 1:51:45 PM
EVENT 5 : selected drink_hot2 at 6/4/2018 1:51:48 PM
EVENT 6 : selected drink_hot1 at 6/4/2018 1:51:50 PM
EVENT 7 : selected drink_cold at 6/4/2018 1:51:52 PM
EVENT 8 : selected pizza_note at 6/4/2018 1:52:04 PM
EVENT 9 : check sound of pizza_hot at 6/4/2018 1:52:10 PM
EVENT 10 : check sound of pizza_second_hottest at 6/4/2018 1:52:12 PM
EVENT 11 : check sound of pizza_cold at 6/4/2018 1:52:16 PM
EVENT 12 : check sound of pizza_second_hottest at 6/4/2018 1:52:18 PM
EVENT 13 : check sound of pizza_hot at 6/4/2018 1:52:20 PM
EVENT 14 : check sound of pizza_cold at 6/4/2018 1:52:23 PM
EVENT 15 : selected pizza_second_hottest at 6/4/2018 1:52:25 PM
EVENT 16 : selected pizza_cold at 6/4/2018 1:52:27 PM
EVENT 17 : selected pizza_hot at 6/4/2018 1:52:30 PM
EVENT 18 : inserted olive oil at 6/4/2018 1:52:59 PM
EVENT 19 : wrong answer, restart cooking mission at 6/4/2018 1:53:17 PM
EVENT 20 : inserted olive oil at 6/4/2018 1:53:21 PM
EVENT 21 : wrong answer, restart cooking mission at 6/4/2018 1:53:31 PM
EVENT 22 : inserted olive oil at 6/4/2018 1:53:36 PM
EVENT 23 : wrong answer, restart cooking mission at 6/4/2018 1:53:44 PM

 ############################################################## 
EVENT 0 : player: random player is playing on 4_6_2018

EVENT 0 : selected Wine_Bottle at 6/4/2018 2:05:46 PM
EVENT 1 : selected drink_hot1 at 6/4/2018 2:05:51 PM
EVENT 2 : check sound of drink_hot1 at 6/4/2018 2:05:52 PM
EVENT 3 : check sound of drink_hot2 at 6/4/2018 2:05:53 PM
EVENT 4 : check sound of drink_cold at 6/4/2018 2:05:55 PM
EVENT 5 : selected drink_cold at 6/4/2018 2:05:55 PM
EVENT 6 : selected pizza_note at 6/4/2018 2:06:02 PM
EVENT 7 : check sound of pizza_hot at 6/4/2018 2:06:07 PM
EVENT 8 : check sound of pizza_second_hottest at 6/4/2018 2:06:11 PM
EVENT 9 : check sound of pizza_cold at 6/4/2018 2:06:13 PM
EVENT 10 : selected pizza_cold at 6/4/2018 2:06:14 PM
EVENT 11 : selected pizza_second_hottest at 6/4/2018 2:06:16 PM
EVENT 12 : inserted olive oil at 6/4/2018 2:06:41 PM

 ############################################################## 
EVENT 0 : player: random player is playing on 4_6_2018

EVENT 0 : selected Wine_Bottle at 6/4/2018 2:12:29 PM
EVENT 1 : selected pizza_note at 6/4/2018 2:12:30 PM
EVENT 2 : selected pizza_note at 6/4/2018 2:12:43 PM
EVENT 3 : selected pizza_second_hottest at 6/4/2018 2:12:47 PM
EVENT 4 : check sound of pizza_second_hottest at 6/4/2018 2:12:49 PM
EVENT 5 : check sound of pizza_hot at 6/4/2018 2:12:53 PM
EVENT 6 : check sound of pizza_second_hottest at 6/4/2018 2:13:21 PM
EVENT 7 : check sound of pizza_cold at 6/4/2018 2:13:42 PM
EVENT 8 : check sound of pizza_cold at 6/4/2018 2:13:42 PM
EVENT 9 : check sound of pizza_cold at 6/4/2018 2:13:48 PM
EVENT 10 : check sound of pizza_cold at 6/4/2018 2:13:58 PM
EVENT 11 : selected pizza_second_hottest at 6/4/2018 2:14:01 PM
EVENT 12 : check sound of drink_hot1 at 6/4/2018 2:14:07 PM
EVENT 13 : check sound of drink_hot1 at 6/4/2018 2:14:15 PM
EVENT 14 : check sound of drink_cold at 6/4/2018 2:14:20 PM
EVENT 15 : selected drink_hot2 at 6/4/2018 2:14:26 PM
EVENT 16 : selected drink_cold at 6/4/2018 2:14:28 PM
EVENT 17 : inserted olive oil at 6/4/2018 2:15:10 PM

 ############################################################## 
EVENT 0 : player: random player is playing on 4_6_2018

EVENT 0 : selected Wine_Bottle at 6/4/2018 2:20:28 PM
EVENT 1 : selected pizza_note at 6/4/2018 2:20:34 PM
EVENT 2 : check sound of pizza_hot at 6/4/2018 2:20:38 PM
EVENT 3 : check sound of pizza_second_hottest at 6/4/2018 2:20:43 PM
EVENT 4 : check sound of pizza_cold at 6/4/2018 2:21:01 PM
EVENT 5 : check sound of pizza_cold at 6/4/2018 2:21:03 PM
EVENT 6 : check sound of pizza_cold at 6/4/2018 2:21:07 PM
EVENT 7 : check sound of pizza_cold at 6/4/2018 2:21:11 PM
EVENT 8 : check sound of pizza_cold at 6/4/2018 2:21:17 PM
EVENT 9 : check sound of pizza_second_hottest at 6/4/2018 2:21:25 PM
EVENT 10 : check sound of pizza_cold at 6/4/2018 2:21:42 PM
EVENT 11 : check sound of pizza_cold at 6/4/2018 2:21:45 PM
EVENT 12 : check sound of pizza_cold at 6/4/2018 2:21:48 PM
EVENT 13 : check sound of pizza_cold at 6/4/2018 2:21:49 PM
EVENT 14 : check sound of pizza_cold at 6/4/2018 2:21:52 PM

 ############################################################## 
EVENT 0 : player: random player is playing on 4_6_2018

EVENT 0 : selected Wine_Bottle at 6/4/2018 2:23:57 PM
EVENT 1 : check sound of drink_hot1 at 6/4/2018 2:24:06 PM
EVENT 2 : check sound of drink_hot2 at 6/4/2018 2:24:08 PM
EVENT 3 : check sound of drink_cold at 6/4/2018 2:24:10 PM
EVENT 4 : selected drink_cold at 6/4/2018 2:24:12 PM
EVENT 5 : selected drink_hot2 at 6/4/2018 2:24:14 PM
EVENT 6 : selected drink_hot1 at 6/4/2018 2:24:16 PM
EVENT 7 : selected pizza_note at 6/4/2018 2:24:31 PM
EVENT 8 : check sound of pizza_second_hottest at 6/4/2018 2:24:39 PM
EVENT 9 : check sound of pizza_hot at 6/4/2018 2:24:41 PM
EVENT 10 : check sound of pizza_cold at 6/4/2018 2:24:43 PM
EVENT 11 : check sound of pizza_cold at 6/4/2018 2:24:45 PM
EVENT 12 : check sound of pizza_cold at 6/4/2018 2:24:49 PM
EVENT 13 : check sound of pizza_cold at 6/4/2018 2:24:53 PM
EVENT 14 : check sound of pizza_second_hottest at 6/4/2018 2:24:55 PM
EVENT 15 : check sound of pizza_hot at 6/4/2018 2:24:57 PM
EVENT 16 : selected pizza_second_hottest at 6/4/2018 2:24:59 PM
EVENT 17 : inserted olive oil at 6/4/2018 2:25:28 PM
EVENT 18 : wrong answer, restart cooking mission at 6/4/2018 2:25:33 PM
EVENT 19 : inserted olive oil at 6/4/2018 2:25:34 PM
EVENT 20 : inserted onion at 6/4/2018 2:25:54 PM
EVENT 21 : inserted tomato sauce at 6/4/2018 2:26:07 PM
EVENT 22 : inserted eggs at 6/4/2018 2:26:15 PM
EVENT 23 : finished cooking at 6/4/2018 2:26:22 PM
