
 ############################################################## 
EVENT 0 : player: random player is playing on 17_7_2018

 ############################################################## 
EVENT 0 : player: random player is playing on 17_7_2018

